{
  "sleep": [
    {
      "logId": 14828100333, 
      "dateOfSleep": "2017-06-02", 
      "minutesToFallAsleep": 0, 
      "awakeningsCount": 11, 
      "minutesAwake": 14, 
      "timeInBed": 515, 
      "minutesAsleep": 501, 
      "awakeDuration": 2, 
      "efficiency": 97, 
      "isMainSleep": true, 
      "startTime": "2017-06-01T22:12:30.000", 
      "restlessCount": 10, 
      "duration": 30900000, 
      "restlessDuration": 12, 
      "minuteData": [
        {
          "value": "2", 
          "dateTime": "22:12:30"
        }, 
        {
          "value": "2", 
          "dateTime": "22:13:30"
        }, 
        {
          "value": "3", 
          "dateTime": "22:14:30"
        }, 
        {
          "value": "3", 
          "dateTime": "22:15:30"
        }, 
        {
          "value": "2", 
          "dateTime": "22:16:30"
        }, 
        {
          "value": "1", 
          "dateTime": "22:17:30"
        }, 
        {
          "value": "1", 
          "dateTime": "22:18:30"
        }, 
        {
          "value": "1", 
          "dateTime": "22:19:30"
        }, 
        {
          "value": "1", 
          "dateTime": "22:20:30"
        }, 
        {
          "value": "1", 
          "dateTime": "22:21:30"
        }, 
        {
          "value": "1", 
          "dateTime": "22:22:30"
        }, 
        {
          "value": "1", 
          "dateTime": "22:23:30"
        }, 
        {
          "value": "1", 
          "dateTime": "22:24:30"
        }, 
        {
          "value": "1", 
          "dateTime": "22:25:30"
        }, 
        {
          "value": "1", 
          "dateTime": "22:26:30"
        }, 
        {
          "value": "1", 
          "dateTime": "22:27:30"
        }, 
        {
          "value": "2", 
          "dateTime": "22:28:30"
        }, 
        {
          "value": "1", 
          "dateTime": "22:29:30"
        }, 
        {
          "value": "1", 
          "dateTime": "22:30:30"
        }, 
        {
          "value": "1", 
          "dateTime": "22:31:30"
        }, 
        {
          "value": "1", 
          "dateTime": "22:32:30"
        }, 
        {
          "value": "1", 
          "dateTime": "22:33:30"
        }, 
        {
          "value": "1", 
          "dateTime": "22:34:30"
        }, 
        {
          "value": "1", 
          "dateTime": "22:35:30"
        }, 
        {
          "value": "1", 
          "dateTime": "22:36:30"
        }, 
        {
          "value": "1", 
          "dateTime": "22:37:30"
        }, 
        {
          "value": "1", 
          "dateTime": "22:38:30"
        }, 
        {
          "value": "1", 
          "dateTime": "22:39:30"
        }, 
        {
          "value": "1", 
          "dateTime": "22:40:30"
        }, 
        {
          "value": "1", 
          "dateTime": "22:41:30"
        }, 
        {
          "value": "1", 
          "dateTime": "22:42:30"
        }, 
        {
          "value": "1", 
          "dateTime": "22:43:30"
        }, 
        {
          "value": "1", 
          "dateTime": "22:44:30"
        }, 
        {
          "value": "1", 
          "dateTime": "22:45:30"
        }, 
        {
          "value": "1", 
          "dateTime": "22:46:30"
        }, 
        {
          "value": "1", 
          "dateTime": "22:47:30"
        }, 
        {
          "value": "1", 
          "dateTime": "22:48:30"
        }, 
        {
          "value": "1", 
          "dateTime": "22:49:30"
        }, 
        {
          "value": "1", 
          "dateTime": "22:50:30"
        }, 
        {
          "value": "1", 
          "dateTime": "22:51:30"
        }, 
        {
          "value": "1", 
          "dateTime": "22:52:30"
        }, 
        {
          "value": "1", 
          "dateTime": "22:53:30"
        }, 
        {
          "value": "1", 
          "dateTime": "22:54:30"
        }, 
        {
          "value": "1", 
          "dateTime": "22:55:30"
        }, 
        {
          "value": "1", 
          "dateTime": "22:56:30"
        }, 
        {
          "value": "1", 
          "dateTime": "22:57:30"
        }, 
        {
          "value": "1", 
          "dateTime": "22:58:30"
        }, 
        {
          "value": "1", 
          "dateTime": "22:59:30"
        }, 
        {
          "value": "1", 
          "dateTime": "23:00:30"
        }, 
        {
          "value": "1", 
          "dateTime": "23:01:30"
        }, 
        {
          "value": "1", 
          "dateTime": "23:02:30"
        }, 
        {
          "value": "1", 
          "dateTime": "23:03:30"
        }, 
        {
          "value": "1", 
          "dateTime": "23:04:30"
        }, 
        {
          "value": "1", 
          "dateTime": "23:05:30"
        }, 
        {
          "value": "1", 
          "dateTime": "23:06:30"
        }, 
        {
          "value": "1", 
          "dateTime": "23:07:30"
        }, 
        {
          "value": "1", 
          "dateTime": "23:08:30"
        }, 
        {
          "value": "1", 
          "dateTime": "23:09:30"
        }, 
        {
          "value": "1", 
          "dateTime": "23:10:30"
        }, 
        {
          "value": "1", 
          "dateTime": "23:11:30"
        }, 
        {
          "value": "1", 
          "dateTime": "23:12:30"
        }, 
        {
          "value": "1", 
          "dateTime": "23:13:30"
        }, 
        {
          "value": "1", 
          "dateTime": "23:14:30"
        }, 
        {
          "value": "1", 
          "dateTime": "23:15:30"
        }, 
        {
          "value": "1", 
          "dateTime": "23:16:30"
        }, 
        {
          "value": "1", 
          "dateTime": "23:17:30"
        }, 
        {
          "value": "1", 
          "dateTime": "23:18:30"
        }, 
        {
          "value": "1", 
          "dateTime": "23:19:30"
        }, 
        {
          "value": "1", 
          "dateTime": "23:20:30"
        }, 
        {
          "value": "1", 
          "dateTime": "23:21:30"
        }, 
        {
          "value": "1", 
          "dateTime": "23:22:30"
        }, 
        {
          "value": "2", 
          "dateTime": "23:23:30"
        }, 
        {
          "value": "1", 
          "dateTime": "23:24:30"
        }, 
        {
          "value": "1", 
          "dateTime": "23:25:30"
        }, 
        {
          "value": "1", 
          "dateTime": "23:26:30"
        }, 
        {
          "value": "1", 
          "dateTime": "23:27:30"
        }, 
        {
          "value": "1", 
          "dateTime": "23:28:30"
        }, 
        {
          "value": "1", 
          "dateTime": "23:29:30"
        }, 
        {
          "value": "1", 
          "dateTime": "23:30:30"
        }, 
        {
          "value": "1", 
          "dateTime": "23:31:30"
        }, 
        {
          "value": "1", 
          "dateTime": "23:32:30"
        }, 
        {
          "value": "1", 
          "dateTime": "23:33:30"
        }, 
        {
          "value": "1", 
          "dateTime": "23:34:30"
        }, 
        {
          "value": "1", 
          "dateTime": "23:35:30"
        }, 
        {
          "value": "1", 
          "dateTime": "23:36:30"
        }, 
        {
          "value": "1", 
          "dateTime": "23:37:30"
        }, 
        {
          "value": "1", 
          "dateTime": "23:38:30"
        }, 
        {
          "value": "1", 
          "dateTime": "23:39:30"
        }, 
        {
          "value": "1", 
          "dateTime": "23:40:30"
        }, 
        {
          "value": "1", 
          "dateTime": "23:41:30"
        }, 
        {
          "value": "1", 
          "dateTime": "23:42:30"
        }, 
        {
          "value": "1", 
          "dateTime": "23:43:30"
        }, 
        {
          "value": "1", 
          "dateTime": "23:44:30"
        }, 
        {
          "value": "1", 
          "dateTime": "23:45:30"
        }, 
        {
          "value": "1", 
          "dateTime": "23:46:30"
        }, 
        {
          "value": "1", 
          "dateTime": "23:47:30"
        }, 
        {
          "value": "1", 
          "dateTime": "23:48:30"
        }, 
        {
          "value": "1", 
          "dateTime": "23:49:30"
        }, 
        {
          "value": "1", 
          "dateTime": "23:50:30"
        }, 
        {
          "value": "1", 
          "dateTime": "23:51:30"
        }, 
        {
          "value": "1", 
          "dateTime": "23:52:30"
        }, 
        {
          "value": "1", 
          "dateTime": "23:53:30"
        }, 
        {
          "value": "1", 
          "dateTime": "23:54:30"
        }, 
        {
          "value": "1", 
          "dateTime": "23:55:30"
        }, 
        {
          "value": "1", 
          "dateTime": "23:56:30"
        }, 
        {
          "value": "1", 
          "dateTime": "23:57:30"
        }, 
        {
          "value": "1", 
          "dateTime": "23:58:30"
        }, 
        {
          "value": "1", 
          "dateTime": "23:59:30"
        }, 
        {
          "value": "1", 
          "dateTime": "00:00:30"
        }, 
        {
          "value": "1", 
          "dateTime": "00:01:30"
        }, 
        {
          "value": "1", 
          "dateTime": "00:02:30"
        }, 
        {
          "value": "1", 
          "dateTime": "00:03:30"
        }, 
        {
          "value": "1", 
          "dateTime": "00:04:30"
        }, 
        {
          "value": "1", 
          "dateTime": "00:05:30"
        }, 
        {
          "value": "1", 
          "dateTime": "00:06:30"
        }, 
        {
          "value": "1", 
          "dateTime": "00:07:30"
        }, 
        {
          "value": "1", 
          "dateTime": "00:08:30"
        }, 
        {
          "value": "1", 
          "dateTime": "00:09:30"
        }, 
        {
          "value": "1", 
          "dateTime": "00:10:30"
        }, 
        {
          "value": "1", 
          "dateTime": "00:11:30"
        }, 
        {
          "value": "1", 
          "dateTime": "00:12:30"
        }, 
        {
          "value": "1", 
          "dateTime": "00:13:30"
        }, 
        {
          "value": "1", 
          "dateTime": "00:14:30"
        }, 
        {
          "value": "1", 
          "dateTime": "00:15:30"
        }, 
        {
          "value": "1", 
          "dateTime": "00:16:30"
        }, 
        {
          "value": "1", 
          "dateTime": "00:17:30"
        }, 
        {
          "value": "1", 
          "dateTime": "00:18:30"
        }, 
        {
          "value": "1", 
          "dateTime": "00:19:30"
        }, 
        {
          "value": "1", 
          "dateTime": "00:20:30"
        }, 
        {
          "value": "1", 
          "dateTime": "00:21:30"
        }, 
        {
          "value": "1", 
          "dateTime": "00:22:30"
        }, 
        {
          "value": "1", 
          "dateTime": "00:23:30"
        }, 
        {
          "value": "1", 
          "dateTime": "00:24:30"
        }, 
        {
          "value": "1", 
          "dateTime": "00:25:30"
        }, 
        {
          "value": "1", 
          "dateTime": "00:26:30"
        }, 
        {
          "value": "1", 
          "dateTime": "00:27:30"
        }, 
        {
          "value": "1", 
          "dateTime": "00:28:30"
        }, 
        {
          "value": "1", 
          "dateTime": "00:29:30"
        }, 
        {
          "value": "1", 
          "dateTime": "00:30:30"
        }, 
        {
          "value": "1", 
          "dateTime": "00:31:30"
        }, 
        {
          "value": "1", 
          "dateTime": "00:32:30"
        }, 
        {
          "value": "1", 
          "dateTime": "00:33:30"
        }, 
        {
          "value": "1", 
          "dateTime": "00:34:30"
        }, 
        {
          "value": "1", 
          "dateTime": "00:35:30"
        }, 
        {
          "value": "1", 
          "dateTime": "00:36:30"
        }, 
        {
          "value": "1", 
          "dateTime": "00:37:30"
        }, 
        {
          "value": "1", 
          "dateTime": "00:38:30"
        }, 
        {
          "value": "1", 
          "dateTime": "00:39:30"
        }, 
        {
          "value": "1", 
          "dateTime": "00:40:30"
        }, 
        {
          "value": "1", 
          "dateTime": "00:41:30"
        }, 
        {
          "value": "1", 
          "dateTime": "00:42:30"
        }, 
        {
          "value": "1", 
          "dateTime": "00:43:30"
        }, 
        {
          "value": "1", 
          "dateTime": "00:44:30"
        }, 
        {
          "value": "1", 
          "dateTime": "00:45:30"
        }, 
        {
          "value": "1", 
          "dateTime": "00:46:30"
        }, 
        {
          "value": "1", 
          "dateTime": "00:47:30"
        }, 
        {
          "value": "1", 
          "dateTime": "00:48:30"
        }, 
        {
          "value": "1", 
          "dateTime": "00:49:30"
        }, 
        {
          "value": "1", 
          "dateTime": "00:50:30"
        }, 
        {
          "value": "1", 
          "dateTime": "00:51:30"
        }, 
        {
          "value": "1", 
          "dateTime": "00:52:30"
        }, 
        {
          "value": "2", 
          "dateTime": "00:53:30"
        }, 
        {
          "value": "1", 
          "dateTime": "00:54:30"
        }, 
        {
          "value": "1", 
          "dateTime": "00:55:30"
        }, 
        {
          "value": "1", 
          "dateTime": "00:56:30"
        }, 
        {
          "value": "1", 
          "dateTime": "00:57:30"
        }, 
        {
          "value": "1", 
          "dateTime": "00:58:30"
        }, 
        {
          "value": "1", 
          "dateTime": "00:59:30"
        }, 
        {
          "value": "1", 
          "dateTime": "01:00:30"
        }, 
        {
          "value": "1", 
          "dateTime": "01:01:30"
        }, 
        {
          "value": "1", 
          "dateTime": "01:02:30"
        }, 
        {
          "value": "1", 
          "dateTime": "01:03:30"
        }, 
        {
          "value": "1", 
          "dateTime": "01:04:30"
        }, 
        {
          "value": "1", 
          "dateTime": "01:05:30"
        }, 
        {
          "value": "1", 
          "dateTime": "01:06:30"
        }, 
        {
          "value": "1", 
          "dateTime": "01:07:30"
        }, 
        {
          "value": "1", 
          "dateTime": "01:08:30"
        }, 
        {
          "value": "1", 
          "dateTime": "01:09:30"
        }, 
        {
          "value": "1", 
          "dateTime": "01:10:30"
        }, 
        {
          "value": "1", 
          "dateTime": "01:11:30"
        }, 
        {
          "value": "1", 
          "dateTime": "01:12:30"
        }, 
        {
          "value": "1", 
          "dateTime": "01:13:30"
        }, 
        {
          "value": "1", 
          "dateTime": "01:14:30"
        }, 
        {
          "value": "1", 
          "dateTime": "01:15:30"
        }, 
        {
          "value": "1", 
          "dateTime": "01:16:30"
        }, 
        {
          "value": "1", 
          "dateTime": "01:17:30"
        }, 
        {
          "value": "1", 
          "dateTime": "01:18:30"
        }, 
        {
          "value": "1", 
          "dateTime": "01:19:30"
        }, 
        {
          "value": "1", 
          "dateTime": "01:20:30"
        }, 
        {
          "value": "1", 
          "dateTime": "01:21:30"
        }, 
        {
          "value": "1", 
          "dateTime": "01:22:30"
        }, 
        {
          "value": "1", 
          "dateTime": "01:23:30"
        }, 
        {
          "value": "1", 
          "dateTime": "01:24:30"
        }, 
        {
          "value": "1", 
          "dateTime": "01:25:30"
        }, 
        {
          "value": "1", 
          "dateTime": "01:26:30"
        }, 
        {
          "value": "1", 
          "dateTime": "01:27:30"
        }, 
        {
          "value": "1", 
          "dateTime": "01:28:30"
        }, 
        {
          "value": "1", 
          "dateTime": "01:29:30"
        }, 
        {
          "value": "1", 
          "dateTime": "01:30:30"
        }, 
        {
          "value": "1", 
          "dateTime": "01:31:30"
        }, 
        {
          "value": "1", 
          "dateTime": "01:32:30"
        }, 
        {
          "value": "1", 
          "dateTime": "01:33:30"
        }, 
        {
          "value": "1", 
          "dateTime": "01:34:30"
        }, 
        {
          "value": "1", 
          "dateTime": "01:35:30"
        }, 
        {
          "value": "1", 
          "dateTime": "01:36:30"
        }, 
        {
          "value": "1", 
          "dateTime": "01:37:30"
        }, 
        {
          "value": "1", 
          "dateTime": "01:38:30"
        }, 
        {
          "value": "1", 
          "dateTime": "01:39:30"
        }, 
        {
          "value": "1", 
          "dateTime": "01:40:30"
        }, 
        {
          "value": "1", 
          "dateTime": "01:41:30"
        }, 
        {
          "value": "1", 
          "dateTime": "01:42:30"
        }, 
        {
          "value": "1", 
          "dateTime": "01:43:30"
        }, 
        {
          "value": "1", 
          "dateTime": "01:44:30"
        }, 
        {
          "value": "1", 
          "dateTime": "01:45:30"
        }, 
        {
          "value": "1", 
          "dateTime": "01:46:30"
        }, 
        {
          "value": "1", 
          "dateTime": "01:47:30"
        }, 
        {
          "value": "1", 
          "dateTime": "01:48:30"
        }, 
        {
          "value": "1", 
          "dateTime": "01:49:30"
        }, 
        {
          "value": "1", 
          "dateTime": "01:50:30"
        }, 
        {
          "value": "1", 
          "dateTime": "01:51:30"
        }, 
        {
          "value": "1", 
          "dateTime": "01:52:30"
        }, 
        {
          "value": "1", 
          "dateTime": "01:53:30"
        }, 
        {
          "value": "1", 
          "dateTime": "01:54:30"
        }, 
        {
          "value": "1", 
          "dateTime": "01:55:30"
        }, 
        {
          "value": "1", 
          "dateTime": "01:56:30"
        }, 
        {
          "value": "1", 
          "dateTime": "01:57:30"
        }, 
        {
          "value": "1", 
          "dateTime": "01:58:30"
        }, 
        {
          "value": "1", 
          "dateTime": "01:59:30"
        }, 
        {
          "value": "1", 
          "dateTime": "02:00:30"
        }, 
        {
          "value": "1", 
          "dateTime": "02:01:30"
        }, 
        {
          "value": "1", 
          "dateTime": "02:02:30"
        }, 
        {
          "value": "1", 
          "dateTime": "02:03:30"
        }, 
        {
          "value": "1", 
          "dateTime": "02:04:30"
        }, 
        {
          "value": "1", 
          "dateTime": "02:05:30"
        }, 
        {
          "value": "1", 
          "dateTime": "02:06:30"
        }, 
        {
          "value": "1", 
          "dateTime": "02:07:30"
        }, 
        {
          "value": "1", 
          "dateTime": "02:08:30"
        }, 
        {
          "value": "1", 
          "dateTime": "02:09:30"
        }, 
        {
          "value": "1", 
          "dateTime": "02:10:30"
        }, 
        {
          "value": "1", 
          "dateTime": "02:11:30"
        }, 
        {
          "value": "1", 
          "dateTime": "02:12:30"
        }, 
        {
          "value": "1", 
          "dateTime": "02:13:30"
        }, 
        {
          "value": "1", 
          "dateTime": "02:14:30"
        }, 
        {
          "value": "1", 
          "dateTime": "02:15:30"
        }, 
        {
          "value": "1", 
          "dateTime": "02:16:30"
        }, 
        {
          "value": "1", 
          "dateTime": "02:17:30"
        }, 
        {
          "value": "1", 
          "dateTime": "02:18:30"
        }, 
        {
          "value": "1", 
          "dateTime": "02:19:30"
        }, 
        {
          "value": "1", 
          "dateTime": "02:20:30"
        }, 
        {
          "value": "1", 
          "dateTime": "02:21:30"
        }, 
        {
          "value": "1", 
          "dateTime": "02:22:30"
        }, 
        {
          "value": "1", 
          "dateTime": "02:23:30"
        }, 
        {
          "value": "1", 
          "dateTime": "02:24:30"
        }, 
        {
          "value": "1", 
          "dateTime": "02:25:30"
        }, 
        {
          "value": "1", 
          "dateTime": "02:26:30"
        }, 
        {
          "value": "1", 
          "dateTime": "02:27:30"
        }, 
        {
          "value": "1", 
          "dateTime": "02:28:30"
        }, 
        {
          "value": "1", 
          "dateTime": "02:29:30"
        }, 
        {
          "value": "1", 
          "dateTime": "02:30:30"
        }, 
        {
          "value": "1", 
          "dateTime": "02:31:30"
        }, 
        {
          "value": "1", 
          "dateTime": "02:32:30"
        }, 
        {
          "value": "1", 
          "dateTime": "02:33:30"
        }, 
        {
          "value": "1", 
          "dateTime": "02:34:30"
        }, 
        {
          "value": "1", 
          "dateTime": "02:35:30"
        }, 
        {
          "value": "1", 
          "dateTime": "02:36:30"
        }, 
        {
          "value": "1", 
          "dateTime": "02:37:30"
        }, 
        {
          "value": "2", 
          "dateTime": "02:38:30"
        }, 
        {
          "value": "1", 
          "dateTime": "02:39:30"
        }, 
        {
          "value": "1", 
          "dateTime": "02:40:30"
        }, 
        {
          "value": "1", 
          "dateTime": "02:41:30"
        }, 
        {
          "value": "1", 
          "dateTime": "02:42:30"
        }, 
        {
          "value": "1", 
          "dateTime": "02:43:30"
        }, 
        {
          "value": "1", 
          "dateTime": "02:44:30"
        }, 
        {
          "value": "1", 
          "dateTime": "02:45:30"
        }, 
        {
          "value": "1", 
          "dateTime": "02:46:30"
        }, 
        {
          "value": "1", 
          "dateTime": "02:47:30"
        }, 
        {
          "value": "1", 
          "dateTime": "02:48:30"
        }, 
        {
          "value": "1", 
          "dateTime": "02:49:30"
        }, 
        {
          "value": "1", 
          "dateTime": "02:50:30"
        }, 
        {
          "value": "1", 
          "dateTime": "02:51:30"
        }, 
        {
          "value": "1", 
          "dateTime": "02:52:30"
        }, 
        {
          "value": "1", 
          "dateTime": "02:53:30"
        }, 
        {
          "value": "1", 
          "dateTime": "02:54:30"
        }, 
        {
          "value": "1", 
          "dateTime": "02:55:30"
        }, 
        {
          "value": "1", 
          "dateTime": "02:56:30"
        }, 
        {
          "value": "1", 
          "dateTime": "02:57:30"
        }, 
        {
          "value": "1", 
          "dateTime": "02:58:30"
        }, 
        {
          "value": "1", 
          "dateTime": "02:59:30"
        }, 
        {
          "value": "1", 
          "dateTime": "03:00:30"
        }, 
        {
          "value": "1", 
          "dateTime": "03:01:30"
        }, 
        {
          "value": "1", 
          "dateTime": "03:02:30"
        }, 
        {
          "value": "1", 
          "dateTime": "03:03:30"
        }, 
        {
          "value": "1", 
          "dateTime": "03:04:30"
        }, 
        {
          "value": "1", 
          "dateTime": "03:05:30"
        }, 
        {
          "value": "1", 
          "dateTime": "03:06:30"
        }, 
        {
          "value": "1", 
          "dateTime": "03:07:30"
        }, 
        {
          "value": "1", 
          "dateTime": "03:08:30"
        }, 
        {
          "value": "1", 
          "dateTime": "03:09:30"
        }, 
        {
          "value": "1", 
          "dateTime": "03:10:30"
        }, 
        {
          "value": "1", 
          "dateTime": "03:11:30"
        }, 
        {
          "value": "1", 
          "dateTime": "03:12:30"
        }, 
        {
          "value": "1", 
          "dateTime": "03:13:30"
        }, 
        {
          "value": "1", 
          "dateTime": "03:14:30"
        }, 
        {
          "value": "1", 
          "dateTime": "03:15:30"
        }, 
        {
          "value": "1", 
          "dateTime": "03:16:30"
        }, 
        {
          "value": "1", 
          "dateTime": "03:17:30"
        }, 
        {
          "value": "1", 
          "dateTime": "03:18:30"
        }, 
        {
          "value": "1", 
          "dateTime": "03:19:30"
        }, 
        {
          "value": "1", 
          "dateTime": "03:20:30"
        }, 
        {
          "value": "1", 
          "dateTime": "03:21:30"
        }, 
        {
          "value": "1", 
          "dateTime": "03:22:30"
        }, 
        {
          "value": "1", 
          "dateTime": "03:23:30"
        }, 
        {
          "value": "1", 
          "dateTime": "03:24:30"
        }, 
        {
          "value": "1", 
          "dateTime": "03:25:30"
        }, 
        {
          "value": "1", 
          "dateTime": "03:26:30"
        }, 
        {
          "value": "1", 
          "dateTime": "03:27:30"
        }, 
        {
          "value": "1", 
          "dateTime": "03:28:30"
        }, 
        {
          "value": "1", 
          "dateTime": "03:29:30"
        }, 
        {
          "value": "1", 
          "dateTime": "03:30:30"
        }, 
        {
          "value": "1", 
          "dateTime": "03:31:30"
        }, 
        {
          "value": "1", 
          "dateTime": "03:32:30"
        }, 
        {
          "value": "1", 
          "dateTime": "03:33:30"
        }, 
        {
          "value": "1", 
          "dateTime": "03:34:30"
        }, 
        {
          "value": "1", 
          "dateTime": "03:35:30"
        }, 
        {
          "value": "1", 
          "dateTime": "03:36:30"
        }, 
        {
          "value": "1", 
          "dateTime": "03:37:30"
        }, 
        {
          "value": "1", 
          "dateTime": "03:38:30"
        }, 
        {
          "value": "1", 
          "dateTime": "03:39:30"
        }, 
        {
          "value": "1", 
          "dateTime": "03:40:30"
        }, 
        {
          "value": "1", 
          "dateTime": "03:41:30"
        }, 
        {
          "value": "1", 
          "dateTime": "03:42:30"
        }, 
        {
          "value": "1", 
          "dateTime": "03:43:30"
        }, 
        {
          "value": "1", 
          "dateTime": "03:44:30"
        }, 
        {
          "value": "1", 
          "dateTime": "03:45:30"
        }, 
        {
          "value": "1", 
          "dateTime": "03:46:30"
        }, 
        {
          "value": "1", 
          "dateTime": "03:47:30"
        }, 
        {
          "value": "1", 
          "dateTime": "03:48:30"
        }, 
        {
          "value": "1", 
          "dateTime": "03:49:30"
        }, 
        {
          "value": "1", 
          "dateTime": "03:50:30"
        }, 
        {
          "value": "1", 
          "dateTime": "03:51:30"
        }, 
        {
          "value": "1", 
          "dateTime": "03:52:30"
        }, 
        {
          "value": "1", 
          "dateTime": "03:53:30"
        }, 
        {
          "value": "1", 
          "dateTime": "03:54:30"
        }, 
        {
          "value": "1", 
          "dateTime": "03:55:30"
        }, 
        {
          "value": "1", 
          "dateTime": "03:56:30"
        }, 
        {
          "value": "1", 
          "dateTime": "03:57:30"
        }, 
        {
          "value": "1", 
          "dateTime": "03:58:30"
        }, 
        {
          "value": "1", 
          "dateTime": "03:59:30"
        }, 
        {
          "value": "1", 
          "dateTime": "04:00:30"
        }, 
        {
          "value": "1", 
          "dateTime": "04:01:30"
        }, 
        {
          "value": "1", 
          "dateTime": "04:02:30"
        }, 
        {
          "value": "1", 
          "dateTime": "04:03:30"
        }, 
        {
          "value": "1", 
          "dateTime": "04:04:30"
        }, 
        {
          "value": "1", 
          "dateTime": "04:05:30"
        }, 
        {
          "value": "1", 
          "dateTime": "04:06:30"
        }, 
        {
          "value": "1", 
          "dateTime": "04:07:30"
        }, 
        {
          "value": "1", 
          "dateTime": "04:08:30"
        }, 
        {
          "value": "1", 
          "dateTime": "04:09:30"
        }, 
        {
          "value": "1", 
          "dateTime": "04:10:30"
        }, 
        {
          "value": "1", 
          "dateTime": "04:11:30"
        }, 
        {
          "value": "1", 
          "dateTime": "04:12:30"
        }, 
        {
          "value": "1", 
          "dateTime": "04:13:30"
        }, 
        {
          "value": "1", 
          "dateTime": "04:14:30"
        }, 
        {
          "value": "1", 
          "dateTime": "04:15:30"
        }, 
        {
          "value": "1", 
          "dateTime": "04:16:30"
        }, 
        {
          "value": "1", 
          "dateTime": "04:17:30"
        }, 
        {
          "value": "1", 
          "dateTime": "04:18:30"
        }, 
        {
          "value": "1", 
          "dateTime": "04:19:30"
        }, 
        {
          "value": "1", 
          "dateTime": "04:20:30"
        }, 
        {
          "value": "1", 
          "dateTime": "04:21:30"
        }, 
        {
          "value": "1", 
          "dateTime": "04:22:30"
        }, 
        {
          "value": "1", 
          "dateTime": "04:23:30"
        }, 
        {
          "value": "1", 
          "dateTime": "04:24:30"
        }, 
        {
          "value": "1", 
          "dateTime": "04:25:30"
        }, 
        {
          "value": "1", 
          "dateTime": "04:26:30"
        }, 
        {
          "value": "1", 
          "dateTime": "04:27:30"
        }, 
        {
          "value": "2", 
          "dateTime": "04:28:30"
        }, 
        {
          "value": "1", 
          "dateTime": "04:29:30"
        }, 
        {
          "value": "1", 
          "dateTime": "04:30:30"
        }, 
        {
          "value": "1", 
          "dateTime": "04:31:30"
        }, 
        {
          "value": "1", 
          "dateTime": "04:32:30"
        }, 
        {
          "value": "1", 
          "dateTime": "04:33:30"
        }, 
        {
          "value": "1", 
          "dateTime": "04:34:30"
        }, 
        {
          "value": "1", 
          "dateTime": "04:35:30"
        }, 
        {
          "value": "1", 
          "dateTime": "04:36:30"
        }, 
        {
          "value": "1", 
          "dateTime": "04:37:30"
        }, 
        {
          "value": "1", 
          "dateTime": "04:38:30"
        }, 
        {
          "value": "1", 
          "dateTime": "04:39:30"
        }, 
        {
          "value": "2", 
          "dateTime": "04:40:30"
        }, 
        {
          "value": "2", 
          "dateTime": "04:41:30"
        }, 
        {
          "value": "1", 
          "dateTime": "04:42:30"
        }, 
        {
          "value": "2", 
          "dateTime": "04:43:30"
        }, 
        {
          "value": "1", 
          "dateTime": "04:44:30"
        }, 
        {
          "value": "1", 
          "dateTime": "04:45:30"
        }, 
        {
          "value": "1", 
          "dateTime": "04:46:30"
        }, 
        {
          "value": "1", 
          "dateTime": "04:47:30"
        }, 
        {
          "value": "1", 
          "dateTime": "04:48:30"
        }, 
        {
          "value": "1", 
          "dateTime": "04:49:30"
        }, 
        {
          "value": "1", 
          "dateTime": "04:50:30"
        }, 
        {
          "value": "1", 
          "dateTime": "04:51:30"
        }, 
        {
          "value": "1", 
          "dateTime": "04:52:30"
        }, 
        {
          "value": "1", 
          "dateTime": "04:53:30"
        }, 
        {
          "value": "1", 
          "dateTime": "04:54:30"
        }, 
        {
          "value": "1", 
          "dateTime": "04:55:30"
        }, 
        {
          "value": "1", 
          "dateTime": "04:56:30"
        }, 
        {
          "value": "1", 
          "dateTime": "04:57:30"
        }, 
        {
          "value": "1", 
          "dateTime": "04:58:30"
        }, 
        {
          "value": "1", 
          "dateTime": "04:59:30"
        }, 
        {
          "value": "1", 
          "dateTime": "05:00:30"
        }, 
        {
          "value": "1", 
          "dateTime": "05:01:30"
        }, 
        {
          "value": "1", 
          "dateTime": "05:02:30"
        }, 
        {
          "value": "1", 
          "dateTime": "05:03:30"
        }, 
        {
          "value": "1", 
          "dateTime": "05:04:30"
        }, 
        {
          "value": "1", 
          "dateTime": "05:05:30"
        }, 
        {
          "value": "1", 
          "dateTime": "05:06:30"
        }, 
        {
          "value": "1", 
          "dateTime": "05:07:30"
        }, 
        {
          "value": "1", 
          "dateTime": "05:08:30"
        }, 
        {
          "value": "1", 
          "dateTime": "05:09:30"
        }, 
        {
          "value": "1", 
          "dateTime": "05:10:30"
        }, 
        {
          "value": "1", 
          "dateTime": "05:11:30"
        }, 
        {
          "value": "1", 
          "dateTime": "05:12:30"
        }, 
        {
          "value": "1", 
          "dateTime": "05:13:30"
        }, 
        {
          "value": "1", 
          "dateTime": "05:14:30"
        }, 
        {
          "value": "1", 
          "dateTime": "05:15:30"
        }, 
        {
          "value": "1", 
          "dateTime": "05:16:30"
        }, 
        {
          "value": "1", 
          "dateTime": "05:17:30"
        }, 
        {
          "value": "1", 
          "dateTime": "05:18:30"
        }, 
        {
          "value": "1", 
          "dateTime": "05:19:30"
        }, 
        {
          "value": "1", 
          "dateTime": "05:20:30"
        }, 
        {
          "value": "1", 
          "dateTime": "05:21:30"
        }, 
        {
          "value": "1", 
          "dateTime": "05:22:30"
        }, 
        {
          "value": "1", 
          "dateTime": "05:23:30"
        }, 
        {
          "value": "1", 
          "dateTime": "05:24:30"
        }, 
        {
          "value": "1", 
          "dateTime": "05:25:30"
        }, 
        {
          "value": "1", 
          "dateTime": "05:26:30"
        }, 
        {
          "value": "1", 
          "dateTime": "05:27:30"
        }, 
        {
          "value": "1", 
          "dateTime": "05:28:30"
        }, 
        {
          "value": "1", 
          "dateTime": "05:29:30"
        }, 
        {
          "value": "1", 
          "dateTime": "05:30:30"
        }, 
        {
          "value": "1", 
          "dateTime": "05:31:30"
        }, 
        {
          "value": "1", 
          "dateTime": "05:32:30"
        }, 
        {
          "value": "1", 
          "dateTime": "05:33:30"
        }, 
        {
          "value": "1", 
          "dateTime": "05:34:30"
        }, 
        {
          "value": "1", 
          "dateTime": "05:35:30"
        }, 
        {
          "value": "1", 
          "dateTime": "05:36:30"
        }, 
        {
          "value": "1", 
          "dateTime": "05:37:30"
        }, 
        {
          "value": "1", 
          "dateTime": "05:38:30"
        }, 
        {
          "value": "1", 
          "dateTime": "05:39:30"
        }, 
        {
          "value": "1", 
          "dateTime": "05:40:30"
        }, 
        {
          "value": "1", 
          "dateTime": "05:41:30"
        }, 
        {
          "value": "1", 
          "dateTime": "05:42:30"
        }, 
        {
          "value": "1", 
          "dateTime": "05:43:30"
        }, 
        {
          "value": "1", 
          "dateTime": "05:44:30"
        }, 
        {
          "value": "1", 
          "dateTime": "05:45:30"
        }, 
        {
          "value": "1", 
          "dateTime": "05:46:30"
        }, 
        {
          "value": "1", 
          "dateTime": "05:47:30"
        }, 
        {
          "value": "1", 
          "dateTime": "05:48:30"
        }, 
        {
          "value": "1", 
          "dateTime": "05:49:30"
        }, 
        {
          "value": "1", 
          "dateTime": "05:50:30"
        }, 
        {
          "value": "1", 
          "dateTime": "05:51:30"
        }, 
        {
          "value": "1", 
          "dateTime": "05:52:30"
        }, 
        {
          "value": "1", 
          "dateTime": "05:53:30"
        }, 
        {
          "value": "1", 
          "dateTime": "05:54:30"
        }, 
        {
          "value": "1", 
          "dateTime": "05:55:30"
        }, 
        {
          "value": "1", 
          "dateTime": "05:56:30"
        }, 
        {
          "value": "1", 
          "dateTime": "05:57:30"
        }, 
        {
          "value": "1", 
          "dateTime": "05:58:30"
        }, 
        {
          "value": "1", 
          "dateTime": "05:59:30"
        }, 
        {
          "value": "1", 
          "dateTime": "06:00:30"
        }, 
        {
          "value": "1", 
          "dateTime": "06:01:30"
        }, 
        {
          "value": "1", 
          "dateTime": "06:02:30"
        }, 
        {
          "value": "1", 
          "dateTime": "06:03:30"
        }, 
        {
          "value": "1", 
          "dateTime": "06:04:30"
        }, 
        {
          "value": "1", 
          "dateTime": "06:05:30"
        }, 
        {
          "value": "1", 
          "dateTime": "06:06:30"
        }, 
        {
          "value": "2", 
          "dateTime": "06:07:30"
        }, 
        {
          "value": "1", 
          "dateTime": "06:08:30"
        }, 
        {
          "value": "1", 
          "dateTime": "06:09:30"
        }, 
        {
          "value": "1", 
          "dateTime": "06:10:30"
        }, 
        {
          "value": "1", 
          "dateTime": "06:11:30"
        }, 
        {
          "value": "1", 
          "dateTime": "06:12:30"
        }, 
        {
          "value": "1", 
          "dateTime": "06:13:30"
        }, 
        {
          "value": "1", 
          "dateTime": "06:14:30"
        }, 
        {
          "value": "1", 
          "dateTime": "06:15:30"
        }, 
        {
          "value": "1", 
          "dateTime": "06:16:30"
        }, 
        {
          "value": "1", 
          "dateTime": "06:17:30"
        }, 
        {
          "value": "1", 
          "dateTime": "06:18:30"
        }, 
        {
          "value": "1", 
          "dateTime": "06:19:30"
        }, 
        {
          "value": "1", 
          "dateTime": "06:20:30"
        }, 
        {
          "value": "1", 
          "dateTime": "06:21:30"
        }, 
        {
          "value": "1", 
          "dateTime": "06:22:30"
        }, 
        {
          "value": "1", 
          "dateTime": "06:23:30"
        }, 
        {
          "value": "1", 
          "dateTime": "06:24:30"
        }, 
        {
          "value": "1", 
          "dateTime": "06:25:30"
        }, 
        {
          "value": "1", 
          "dateTime": "06:26:30"
        }, 
        {
          "value": "1", 
          "dateTime": "06:27:30"
        }, 
        {
          "value": "1", 
          "dateTime": "06:28:30"
        }, 
        {
          "value": "1", 
          "dateTime": "06:29:30"
        }, 
        {
          "value": "1", 
          "dateTime": "06:30:30"
        }, 
        {
          "value": "1", 
          "dateTime": "06:31:30"
        }, 
        {
          "value": "1", 
          "dateTime": "06:32:30"
        }, 
        {
          "value": "1", 
          "dateTime": "06:33:30"
        }, 
        {
          "value": "1", 
          "dateTime": "06:34:30"
        }, 
        {
          "value": "1", 
          "dateTime": "06:35:30"
        }, 
        {
          "value": "1", 
          "dateTime": "06:36:30"
        }, 
        {
          "value": "1", 
          "dateTime": "06:37:30"
        }, 
        {
          "value": "1", 
          "dateTime": "06:38:30"
        }, 
        {
          "value": "1", 
          "dateTime": "06:39:30"
        }, 
        {
          "value": "1", 
          "dateTime": "06:40:30"
        }, 
        {
          "value": "1", 
          "dateTime": "06:41:30"
        }, 
        {
          "value": "1", 
          "dateTime": "06:42:30"
        }, 
        {
          "value": "1", 
          "dateTime": "06:43:30"
        }, 
        {
          "value": "1", 
          "dateTime": "06:44:30"
        }, 
        {
          "value": "1", 
          "dateTime": "06:45:30"
        }, 
        {
          "value": "1", 
          "dateTime": "06:46:30"
        }
      ], 
      "endTime": "2017-06-02T06:47:30.000", 
      "awakeCount": 1, 
      "minutesAfterWakeup": 0
    }
  ], 
  "summary": {
    "totalTimeInBed": 515, 
    "stages": {
      "light": 257, 
      "wake": 74, 
      "deep": 66, 
      "rem": 78
    }, 
    "totalMinutesAsleep": 501, 
    "totalSleepRecords": 1
  }
}